WAI Database Analysis + Freq. vs Mean Absorption – Leonardo Torres
…
End Description

Although the graph above doesn’t look one to one to figure one, it appears to be very similar regarding its trend and location within this plot. As discussed in the beginning, the main goal was to join PI_Info and Measurements together through the Identifier column, since this is what identifies which row is a specific publication. From this a table was created that describes the freq. and mean absorbances for each publication. The next chunk of SQL code joins measurements and PI_Info again however the main purpose of it was to get the the information to create the legend on the given graph. Finally with both tables, I was able to create a plot graph that shows the mean absorbance from each publication depending on its frequencies.

Individual Study

After looking through all of tidyverse, I wasn’t able to find a good data set I liked that had sex, race, ethnicity, or age groups that would be best to use for a frequency vs mean absorbance graph. I decided to go on kaggle where I found this public database regarding covid data found at this link. https://www.kaggle.com/code/kerneler/starter-covid-19-cases-and-deaths-by-54180eb0-f/comments

This dataset contains a Race/Ethnicity column that sepeartes Hispanics, American Indian, Asian, Pacific islander, Black, and etc. I thought this would be perfect and decied to read the csv file I downloaded and go from there

covid_data <- read_csv("COVID-19_Cases_and_Deaths_by_Race_Ethnicity.csv", show_col_types = FALSE)
covid_data

# A tibble: 382 × 9
   `Date updated` `Race/ethnicity`              `Total population` `Total cases`
   <chr>          <chr>                                      <dbl>         <dbl>
 1 04/20/2020     Hispanic                                  589809          2269
 2 04/20/2020     NH Asian                                  187532           215
 3 04/20/2020     NH Black                                  387134          1823
 4 04/20/2020     NH Other                                       0           118
 5 04/20/2020     NH White                                 2408190          5101
 6 04/20/2020     Unknown                                        0          8837
 7 05/05/2020     Hispanic                                  589809          5079
 8 05/05/2020     NH American Indian or Alaska…               9566            30
 9 05/05/2020     NH Asian or Pacific Islander              177966           444
10 05/05/2020     NH Black                                  387134          3720
# ℹ 372 more rows
# ℹ 5 more variables: `Crude case rate per 100k` <dbl>,
#   `Age adjusted case rate per 100k` <dbl>, `Total deaths` <dbl>,
#   `Crude death rate per 100k` <dbl>, `Age adjusted death rate per 100k` <dbl>
…
